<svg xmlns="http://www.w3.org/2000/svg" width="447.4" height="196" viewBox="0 0 447.4 196">
  <g id="banner-leftsky" transform="translate(2.084 -676.531)">
    <g id="Group_4" data-name="Group 4" transform="translate(-2.084 711.254)">
      <path id="Path_4" data-name="Path 4" d="M479.947,154.277H70.262a68.866,68.866,0,0,1-5.131-7.478c-12.6-21.338-13.22-46.615-1.648-67.613,15.806-28.682,43.166-34.7,63.331-34.7a109.18,109.18,0,0,1,24.1,2.724c1.708-9.805,9.294-34.535,42.467-40.337a64.41,64.41,0,0,1,11.1-.985c24.789,0,41.258,14.782,48.645,23.228,3.85-10.368,16.9-28.5,61.062-35.02A100.112,100.112,0,0,1,328.662-7c42.812,0,61.49,30.895,66.287,40.563a68.5,68.5,0,0,1,19.844-3.188c23.793,0,34.984,15.164,38.236,20.611,16.854.441,33,12.183,42.336,30.854,10.472,20.945,9.553,43.857-2.4,59.791A58.213,58.213,0,0,1,479.947,154.277Z" transform="translate(-55.221 7)" fill="#dbf4fc"/>
    </g>
    <g id="Group_5" data-name="Group 5" transform="translate(-0.44 676.531)" opacity="0.5">
      <path id="Path_5" data-name="Path 5" d="M158.1,109.482c-7.181,9.573-18.819,11-25.116,11-1.448,0-2.686-.072-3.627-.154.539,4.147.357,13.952-10.454,23.752a25.954,25.954,0,0,1-18,6.652,40.141,40.141,0,0,1-14.549-2.919c-2.131,4.159-10.187,16.377-31.221,16.377-.6,0-1.207-.009-1.825-.029-25.419-.819-31.062-21.128-32.16-26.983a29.921,29.921,0,0,1-5.78.6c-12.961,0-17.274-10.029-18.42-13.709a17.839,17.839,0,0,1-2.238.141c-.57,0-1.138-.04-1.706-.1V68.9a38.28,38.28,0,0,1,8.576-.944,46.706,46.706,0,0,1,10.3,1.165c.73-4.193,3.972-14.763,18.152-17.243a27.572,27.572,0,0,1,4.745-.421c10.6,0,17.635,6.319,20.794,9.929,1.646-4.431,7.225-12.183,26.1-14.969a42.825,42.825,0,0,1,6.187-.47A31.058,31.058,0,0,1,116.2,63.287a29.3,29.3,0,0,1,8.484-1.363,18.5,18.5,0,0,1,16.345,8.81c7.2.189,14.107,5.209,18.1,13.19C163.6,92.878,163.205,102.671,158.1,109.482Z" transform="translate(7 -45.947)" fill="#0272d3"/>
    </g>
    <g id="Group_6" data-name="Group 6" transform="translate(-0.44 745.317)">
      <path id="Path_6" data-name="Path 6" d="M174.692,85.8c-10.49,13.982-27.488,16.07-36.685,16.07-2.113,0-3.921-.1-5.3-.225a34.38,34.38,0,0,1-3.09,18.574H-7V1.118c.524-.022,1.054-.07,1.574-.07,15.477,0,25.759,9.228,30.37,14.5C27.349,9.076,35.5-2.246,63.069-6.316A62.608,62.608,0,0,1,72.107-7c26.73,0,38.39,19.287,41.386,25.325a42.775,42.775,0,0,1,12.39-1.99c14.854,0,21.843,9.466,23.872,12.867,10.523.276,20.6,7.607,26.432,19.264C182.725,61.543,182.151,75.848,174.692,85.8Z" transform="translate(7 7)" fill="#fff"/>
    </g>
  </g>
</svg>
