<svg xmlns="http://www.w3.org/2000/svg" xmlns:xlink="http://www.w3.org/1999/xlink" width="556" height="601.034" viewBox="0 0 556 601.034">
  <defs>
    <clipPath id="clip-path">
      <path id="Path_62" data-name="Path 62" d="M286.481,247.712l-9.04,172.119L162.91,413.823l.96-18.245,8.08-153.888,72.115,3.786Z" transform="translate(-162.91 -241.69)" fill="none"/>
    </clipPath>
    <clipPath id="clip-path-2">
      <path id="Path_74" data-name="Path 74" d="M239.965,381.049l-110.5,30.714L83.32,245.681l45.749-12.717,64.749-17.984,41.867,150.678Z" transform="translate(-83.32 -214.98)" fill="none"/>
    </clipPath>
    <clipPath id="clip-path-3">
      <path id="Path_100" data-name="Path 100" d="M447.984,277.557l-16.791,61.978a13.21,13.21,0,0,1-12.1,9.287H323.289a6.941,6.941,0,0,1-7.078-9.26l16.8-61.978a13.224,13.224,0,0,1,12.1-9.26h95.792a6.969,6.969,0,0,1,7.449,6.461A7.065,7.065,0,0,1,447.984,277.557Z" transform="translate(-315.804 -268.307)" fill="none"/>
    </clipPath>
    <clipPath id="clip-path-4">
      <path id="Path_105" data-name="Path 105" d="M410.582,365.253v11.3H287.23v-11.3a8.313,8.313,0,0,1,8.313-8.313H402.255a8.3,8.3,0,0,1,8.327,8.313Z" transform="translate(-287.23 -356.94)" fill="none"/>
    </clipPath>
    <clipPath id="clip-path-5">
      <path id="Path_109" data-name="Path 109" d="M293.3,387.262c-5.912,6.022,22.744,100.648,22.744,100.648-3.128,2.744-7.737,4.006-12.1,4.582a55.636,55.636,0,0,1-12.085.178s-41.071-99.62-29.768-124.339,81.443-35.941,81.443-35.941l2.991-7.408,36.284-5.1,5.995,44.432s-5.954.576-14.911,1.728C349.874,369.086,304.166,376.288,293.3,387.262Z" transform="translate(-260.125 -319.88)" fill="none"/>
    </clipPath>
    <clipPath id="clip-path-6">
      <path id="Path_113" data-name="Path 113" d="M269.667,314.176c-6.022-1.029,36.846-38.616,36.846-38.616l20.673,13.91s-35.173,24.775-40.7,25.447S269.667,314.176,269.667,314.176Z" transform="translate(-269.087 -275.56)" fill="none"/>
    </clipPath>
    <clipPath id="clip-path-7">
      <path id="Path_125" data-name="Path 125" d="M307.545,435.09l11.427,30.056s1.893,7.723-32.566,5.281l-18.986-1.619Z" transform="translate(-267.42 -435.09)" fill="none"/>
    </clipPath>
    <clipPath id="clip-path-8">
      <path id="Path_153" data-name="Path 153" d="M326.066,287.1a25.227,25.227,0,0,1-1.372-10.192,29.958,29.958,0,0,1,.37-3.5l-2.318-3.676L319.77,265l3.443-13.718s21.949,4.225,23.595,10.343S326.066,287.1,326.066,287.1Z" transform="translate(-319.77 -251.28)" fill="none"/>
    </clipPath>
    <clipPath id="clip-path-9">
      <path id="Path_177" data-name="Path 177" d="M393.013,397a93.708,93.708,0,0,0-29.068,30.179c-12.086,20.165-21.661,48.534-6.79,52.128l14.143-.535,27.216-9.342-2.853-5.487s-23.828,12.621-27.9,12.621-9.383,1.015-11.619-.617,7.833-38.3,29.384-50.523S393.013,397,393.013,397Z" transform="translate(-349.575 -397)" fill="none"/>
    </clipPath>
    <clipPath id="clip-path-10">
      <path id="Path_182" data-name="Path 182" d="M386.924,482.566c-18.944,0-15.35-84.955-13.169-89.167s57.149-6.31,62.567-4.527S463.47,475.3,451.48,482.059Z" transform="translate(-371.966 -388.235)" fill="none"/>
    </clipPath>
    <clipPath id="clip-path-11">
      <path id="Path_187" data-name="Path 187" d="M411.84,403.634l8.066,6.585a1.1,1.1,0,0,1,.123,1.55h0l-6.283,6.777a1.07,1.07,0,0,1-1.509,0h0l-8.025-7.476a1.084,1.084,0,0,1,0-1.509h0l6.214-5.775A1.07,1.07,0,0,1,411.84,403.634Z" transform="translate(-403.907 -403.435)" fill="none"/>
    </clipPath>
    <clipPath id="clip-path-12">
      <path id="Path_191" data-name="Path 191" d="M390.412,429.232s36.462,3,54.364-1.632a15.378,15.378,0,0,1,5.117,7.339c1.632,4.884,5.035,21.592-5.117,25.872s-46.641,3.457-51.511-1.372S390.412,429.232,390.412,429.232Z" transform="translate(-389.998 -427.6)" fill="none"/>
    </clipPath>
    <clipPath id="clip-path-13">
      <path id="Path_196" data-name="Path 196" d="M382.666,427s1.221,24.24,3.663,29.74a12.689,12.689,0,0,1-11.743,0c-6.173-3.265-5.158-24.144-3.937-24.089S382.666,427,382.666,427Z" transform="translate(-369.729 -427)" fill="none"/>
    </clipPath>
  </defs>
  <g id="Exams-bro" transform="translate(-47.21 -25.499)">
    <g id="freepik--background-simple--inject-2" transform="translate(62.255 43.986)">
      <path id="Path_14" data-name="Path 14" d="M548.066,341.959C548,237.03,563.773,209.251,506.913,120.606S310.664,12.331,205.255,78.081,71.506,228.388,71.506,228.388s-38.246,98.769,15.5,198.224c49.151,90.977,145.945,142.666,229.9,185.192H531.577a151.31,151.31,0,0,0,32.813-38.822C608.11,499.413,548.149,446.887,548.066,341.959Z" transform="translate(-58.313 -39.116)" fill="#ffc100"/>
      <path id="Path_15" data-name="Path 15" d="M548.066,341.959C548,237.03,563.773,209.251,506.913,120.606S310.664,12.331,205.255,78.081,71.506,228.388,71.506,228.388s-38.246,98.769,15.5,198.224c49.151,90.977,145.945,142.666,229.9,185.192H531.577a151.31,151.31,0,0,0,32.813-38.822C608.11,499.413,548.149,446.887,548.066,341.959Z" transform="translate(-58.313 -39.116)" fill="#fff" opacity="0.7"/>
    </g>
    <g id="freepik--Clocks--inject-2" transform="translate(47.71 26.015)">
      <path id="Path_16" data-name="Path 16" d="M229.79,59.905c1.852,7.339.947-6.173,4.582-22.717s9.85-9.822,9.85-9.822" transform="translate(19.986 -26.015)" fill="none" stroke="#263238" stroke-linecap="round" stroke-linejoin="round" stroke-width="1"/>
      <line id="Line_1" data-name="Line 1" y1="4.664" x2="11.4" transform="translate(248.637 12.325)" fill="none" stroke="#263238" stroke-linecap="round" stroke-linejoin="round" stroke-width="1"/>
      <path id="Path_17" data-name="Path 17" d="M244.746,30.92s-6.859,14.075,3.443,20.069" transform="translate(24.715 -24.192)" fill="none" stroke="#263238" stroke-linecap="round" stroke-linejoin="round" stroke-width="1"/>
      <path id="Path_18" data-name="Path 18" d="M251.18,28s11.235,6.242,4.2,19.768" transform="translate(27.939 -25.277)" fill="none" stroke="#263238" stroke-linecap="round" stroke-linejoin="round" stroke-width="1"/>
      <line id="Line_2" data-name="Line 2" x2="8.052" y2="5.885" transform="translate(271.409 11.488)" fill="none" stroke="#263238" stroke-linecap="round" stroke-linejoin="round" stroke-width="1"/>
      <line id="Line_3" data-name="Line 3" x1="6.31" y2="10.028" transform="translate(271.423 8.91)" fill="none" stroke="#263238" stroke-linecap="round" stroke-linejoin="round" stroke-width="1"/>
      <path id="Path_19" data-name="Path 19" d="M76.515,292.42s-19.109-.274-19.205,16.215" transform="translate(-44.141 73.032)" fill="none" stroke="#263238" stroke-linecap="round" stroke-linejoin="round" stroke-width="1"/>
      <path id="Path_20" data-name="Path 20" d="M72.938,300.789c-.4-2.428-8.711-5.487-10.151.85s8.889,2.538,12.085-.425c0,0-5.926,5.762-4.115,7.38" transform="translate(-42.155 75.061)" fill="none" stroke="#263238" stroke-linecap="round" stroke-linejoin="round" stroke-width="1"/>
      <path id="Path_21" data-name="Path 21" d="M72.417,307s-2.51,3.141-5.227,1.646" transform="translate(-40.467 78.453)" fill="none" stroke="#263238" stroke-linecap="round" stroke-linejoin="round" stroke-width="1"/>
      <path id="Path_22" data-name="Path 22" d="M87.075,299,72.74,313.555s7.216-7.312,11.4-4.952c5.213,2.853-1.55,10.673-7.12,5.076" transform="translate(-38.404 75.479)" fill="none" stroke="#263238" stroke-linecap="round" stroke-linejoin="round" stroke-width="1"/>
      <path id="Path_23" data-name="Path 23" d="M92.757,301.86s3.8,17.408-15.817,18.025" transform="translate(-36.843 76.542)" fill="none" stroke="#263238" stroke-linecap="round" stroke-linejoin="round" stroke-width="1"/>
      <path id="Path_24" data-name="Path 24" d="M275.03,89.049l6.914,1.139.1,15.707L297.184,78.28l23.9,3.923" transform="translate(36.806 -6.584)" fill="none" stroke="#263238" stroke-linecap="round" stroke-linejoin="round" stroke-width="1"/>
      <line id="Line_4" data-name="Line 4" x2="10.508" y2="18.547" transform="translate(336.61 83.796)" fill="none" stroke="#263238" stroke-linecap="round" stroke-linejoin="round" stroke-width="1"/>
      <line id="Line_5" data-name="Line 5" x1="18.807" y2="13.732" transform="translate(331.014 85.963)" fill="none" stroke="#263238" stroke-linecap="round" stroke-linejoin="round" stroke-width="1"/>
      <path id="Path_25" data-name="Path 25" d="M208.916,106.766c-1.77-2.25-11.962-.645-9.891,6.571s10.494-2.4,12.1-7.216c0,0-2.812,9.2,0,9.822" transform="translate(8.445 3.656)" fill="none" stroke="#263238" stroke-linecap="round" stroke-linejoin="round" stroke-width="1"/>
      <path id="Path_26" data-name="Path 26" d="M212.467,101.1l-2.277,8.094s1.139-4.115,3.141-4.115c2.456,0,1.564,4.115-1.578,3.265" transform="translate(12.699 1.901)" fill="none" stroke="#263238" stroke-linecap="round" stroke-linejoin="round" stroke-width="1"/>
      <path id="Path_27" data-name="Path 27" d="M353.231,173.82l-4.8,17.353,10.494,11.5" transform="translate(64.095 28.938)" fill="none" stroke="#263238" stroke-linecap="round" stroke-linejoin="round" stroke-width="1"/>
      <line id="Line_6" data-name="Line 6" x2="12.017" y2="10.055" transform="translate(423.335 209.809)" fill="none" stroke="#263238" stroke-linecap="round" stroke-linejoin="round" stroke-width="1"/>
      <line id="Line_7" data-name="Line 7" x1="5.199" y2="12.771" transform="translate(426.408 207.339)" fill="none" stroke="#263238" stroke-linecap="round" stroke-linejoin="round" stroke-width="1"/>
      <path id="Path_28" data-name="Path 28" d="M368.894,185.27s.11,3.622-1.454,4.115" transform="translate(71.163 33.195)" fill="none" stroke="#263238" stroke-linecap="round" stroke-linejoin="round" stroke-width="1"/>
      <line id="Line_8" data-name="Line 8" x2="7.257" y2="5.391" transform="translate(441.58 205.817)" fill="none" stroke="#263238" stroke-linecap="round" stroke-linejoin="round" stroke-width="1"/>
      <line id="Line_9" data-name="Line 9" x1="7.161" y2="25.79" transform="translate(444.365 201.386)" fill="none" stroke="#263238" stroke-linecap="round" stroke-linejoin="round" stroke-width="1"/>
      <path id="Path_29" data-name="Path 29" d="M377.12,166.29l11.633,13.169-4.952,14.4" transform="translate(74.762 26.138)" fill="none" stroke="#263238" stroke-linecap="round" stroke-linejoin="round" stroke-width="1"/>
      <path id="Path_30" data-name="Path 30" d="M143.58,427.588l16.832-50.1,20.412,22.785Z" transform="translate(-12.066 104.661)" fill="none" stroke="#263238" stroke-linecap="round" stroke-linejoin="round" stroke-width="1"/>
      <path id="Path_31" data-name="Path 31" d="M168.247,399.183l-4.307-4.925,4.6-3.978" transform="translate(-4.497 109.416)" fill="none" stroke="#263238" stroke-linecap="round" stroke-linejoin="round" stroke-width="1"/>
      <circle id="Ellipse_3" data-name="Ellipse 3" cx="17.134" cy="17.134" r="17.134" transform="translate(3.079 225.678) rotate(-22.5)" fill="none" stroke="#263238" stroke-linecap="round" stroke-linejoin="round" stroke-width="1"/>
      <circle id="Ellipse_4" data-name="Ellipse 4" cx="19.013" cy="19.013" r="19.013" transform="translate(25.46 200.933)" fill="none" stroke="#263238" stroke-linecap="round" stroke-linejoin="round" stroke-width="1"/>
      <line id="Line_10" data-name="Line 10" x1="2.318" y2="8.052" transform="translate(26.517 218.149)" fill="none" stroke="#263238" stroke-linecap="round" stroke-linejoin="round" stroke-width="1"/>
      <line id="Line_11" data-name="Line 11" x1="3.279" y2="11.605" transform="translate(28.835 219.15)" fill="none" stroke="#263238" stroke-linecap="round" stroke-linejoin="round" stroke-width="1"/>
      <line id="Line_12" data-name="Line 12" x1="3.443" y2="13.128" transform="translate(32.114 221.098)" fill="none" stroke="#263238" stroke-linecap="round" stroke-linejoin="round" stroke-width="1"/>
      <line id="Line_13" data-name="Line 13" x1="2.456" y2="12.456" transform="translate(36.929 224.953)" fill="none" stroke="#263238" stroke-linecap="round" stroke-linejoin="round" stroke-width="1"/>
      <line id="Line_14" data-name="Line 14" x1="2.154" y2="9.26" transform="translate(39.384 229.014)" fill="none" stroke="#263238" stroke-linecap="round" stroke-linejoin="round" stroke-width="1"/>
      <path id="Path_32" data-name="Path 32" d="M55.3,181.544c-1.5-.453-5.6,3.443-2.414,6.063s3.992-4.362,3.21-7.037c0,0,1.6,5.034,3.059,4.431" transform="translate(-46.223 31.447)" fill="none" stroke="#263238" stroke-linecap="round" stroke-linejoin="round" stroke-width="1"/>
      <path id="Path_33" data-name="Path 33" d="M70.45,165.25l5.487,9.987s-2.744-4.993-.809-6.859c2.359-2.3,5.487,2.565,1.536,4.609" transform="translate(-39.255 25.751)" fill="none" stroke="#263238" stroke-linecap="round" stroke-linejoin="round" stroke-width="1"/>
      <line id="Line_15" data-name="Line 15" x2="7.751" y2="7.339" transform="translate(131.459 189.808)" fill="none" stroke="#263238" stroke-linecap="round" stroke-linejoin="round" stroke-width="1"/>
      <line id="Line_16" data-name="Line 16" x1="6.489" y2="9.685" transform="translate(132.721 187.901)" fill="none" stroke="#263238" stroke-linecap="round" stroke-linejoin="round" stroke-width="1"/>
      <line id="Line_17" data-name="Line 17" y1="2.894" x2="7.751" transform="translate(146.837 187.791)" fill="none" stroke="#263238" stroke-linecap="round" stroke-linejoin="round" stroke-width="1"/>
      <line id="Line_18" data-name="Line 18" x2="4.719" y2="4.17" transform="translate(158.305 179.711)" fill="none" stroke="#263238" stroke-linecap="round" stroke-linejoin="round" stroke-width="1"/>
      <line id="Line_19" data-name="Line 19" x1="5.967" y2="20.495" transform="translate(160.664 174.691)" fill="none" stroke="#263238" stroke-linecap="round" stroke-linejoin="round" stroke-width="1"/>
      <path id="Path_34" data-name="Path 34" d="M416.229,154.606,415.9,138.94h11.839s-6.557,3.622-3.539,12.044,7.874,3.622,7.874,3.622" transform="translate(89.18 15.969)" fill="none" stroke="#263238" stroke-linecap="round" stroke-linejoin="round" stroke-width="1"/>
      <path id="Path_35" data-name="Path 35" d="M401.52,347.683l13.471-9.273,17.833,1.248,1.111,22.607-13.087,9.369-16.16-1.18Z" transform="translate(83.834 90.131)" fill="none" stroke="#263238" stroke-linecap="round" stroke-linejoin="round" stroke-width="1"/>
      <path id="Path_36" data-name="Path 36" d="M403.83,364.313l13.032-9.383,16.215,1.193" transform="translate(84.693 96.273)" fill="none" stroke="#263238" stroke-linecap="round" stroke-linejoin="round" stroke-width="1"/>
      <line id="Line_20" data-name="Line 20" x1="2.744" y1="22.662" transform="translate(498.825 428.541)" fill="none" stroke="#263238" stroke-linecap="round" stroke-linejoin="round" stroke-width="1"/>
      <path id="Path_37" data-name="Path 37" d="M401.52,347.345l17.792,2.058,13.512-10.083" transform="translate(83.834 90.469)" fill="none" stroke="#263238" stroke-linecap="round" stroke-linejoin="round" stroke-width="1"/>
      <line id="Line_21" data-name="Line 21" x2="1.536" y2="21.894" transform="translate(503.146 439.872)" fill="none" stroke="#263238" stroke-linecap="round" stroke-linejoin="round" stroke-width="1"/>
      <path id="Path_38" data-name="Path 38" d="M403.466,221.39l-.576,30.138L429.3,239.539Z" transform="translate(84.343 46.624)" fill="none" stroke="#263238" stroke-linecap="round" stroke-linejoin="round" stroke-width="1"/>
      <line id="Line_22" data-name="Line 22" x2="12.579" y2="23.993" transform="translate(487.809 268.014)" fill="none" stroke="#263238" stroke-linecap="round" stroke-linejoin="round" stroke-width="1"/>
      <path id="Path_39" data-name="Path 39" d="M411.01,236.472l3.059-1.482,2.058,4.1" transform="translate(87.362 51.68)" fill="none" stroke="#263238" stroke-linecap="round" stroke-linejoin="round" stroke-width="1"/>
      <line id="Line_23" data-name="Line 23" x2="10.919" y2="11.701" transform="translate(257.568 265.16)" fill="none" stroke="#263238" stroke-linecap="round" stroke-linejoin="round" stroke-width="1"/>
      <line id="Line_24" data-name="Line 24" x1="9.177" y2="12.566" transform="translate(259.392 263.583)" fill="none" stroke="#263238" stroke-linecap="round" stroke-linejoin="round" stroke-width="1"/>
      <path id="Path_40" data-name="Path 40" d="M246.943,213.745a2.181,2.181,0,0,1,2.895,1.056,2.251,2.251,0,0,1,.178.59c.535,2.634-3.786,6.063-3.786,6.063h6.159" transform="translate(26.098 43.706)" fill="none" stroke="#263238" stroke-linecap="round" stroke-linejoin="round" stroke-width="1"/>
      <path id="Path_41" data-name="Path 41" d="M111.54,100.148A39.672,39.672,0,0,1,132.446,68.24" transform="translate(-23.978 -10.316)" fill="none" stroke="#263238" stroke-linecap="round" stroke-linejoin="round" stroke-width="1"/>
      <path id="Path_42" data-name="Path 42" d="M140.212,126.681A39.672,39.672,0,0,1,116,109.41" transform="translate(-22.32 4.99)" fill="none" stroke="#263238" stroke-linecap="round" stroke-linejoin="round" stroke-width="1"/>
      <path id="Path_43" data-name="Path 43" d="M180.9,96.11a39.782,39.782,0,0,1-42.786,36.462" transform="translate(-14.1 0.046)" fill="none" stroke="#263238" stroke-linecap="round" stroke-linejoin="round" stroke-width="1"/>
      <path id="Path_44" data-name="Path 44" d="M142.72,64.93a39.782,39.782,0,0,1,36.229,34.213" transform="translate(-12.386 -11.547)" fill="none" stroke="#263238" stroke-linecap="round" stroke-linejoin="round" stroke-width="1"/>
      <path id="Path_45" data-name="Path 45" d="M167.079,125.159A35.077,35.077,0,0,1,114.95,91.77" transform="translate(-22.752 -1.568)" fill="none" stroke="#263238" stroke-linecap="round" stroke-linejoin="round" stroke-width="1"/>
      <path id="Path_46" data-name="Path 46" d="M116.56,90.7a35.077,35.077,0,1,1,58.891,35.968" transform="translate(-22.112 -10.324)" fill="none" stroke="#263238" stroke-linecap="round" stroke-linejoin="round" stroke-width="1"/>
      <path id="Path_47" data-name="Path 47" d="M137.91,75.41l3.443,25.241,19.4-6.036" transform="translate(-14.174 -7.651)" fill="none" stroke="#263238" stroke-linecap="round" stroke-linejoin="round" stroke-width="1"/>
      <path id="Path_48" data-name="Path 48" d="M368.431,142.546a27.518,27.518,0,0,1-18.78-47.876" transform="translate(61.201 -0.49)" fill="none" stroke="#263238" stroke-linecap="round" stroke-linejoin="round" stroke-width="1"/>
      <path id="Path_49" data-name="Path 49" d="M384.271,116a27.436,27.436,0,0,1-16.9,17.079" transform="translate(71.137 7.44)" fill="none" stroke="#263238" stroke-linecap="round" stroke-linejoin="round" stroke-width="1"/>
      <path id="Path_50" data-name="Path 50" d="M354.05,91.015a27.518,27.518,0,0,1,35.09,16.818" transform="translate(66.185 -2.432)" fill="none" stroke="#263238" stroke-linecap="round" stroke-linejoin="round" stroke-width="1"/>
      <path id="Path_51" data-name="Path 51" d="M379.161,94.84A24.281,24.281,0,1,1,347.61,131.3" transform="translate(63.791 -0.427)" fill="none" stroke="#263238" stroke-linecap="round" stroke-linejoin="round" stroke-width="1"/>
      <path id="Path_52" data-name="Path 52" d="M344.372,124.143a24.281,24.281,0,0,1,29.013-31.551" transform="translate(62.076 -1.553)" fill="none" stroke="#263238" stroke-linecap="round" stroke-linejoin="round" stroke-width="1"/>
      <path id="Path_53" data-name="Path 53" d="M353.95,98.58l9.273,14.994-8.45,10.961" transform="translate(66.148 0.964)" fill="none" stroke="#263238" stroke-linecap="round" stroke-linejoin="round" stroke-width="1"/>
      <path id="Path_54" data-name="Path 54" d="M219,413.382a22.031,22.031,0,0,1,9.6-18.272" transform="translate(15.974 111.211)" fill="none" stroke="#263238" stroke-linecap="round" stroke-linejoin="round" stroke-width="1"/>
      <path id="Path_55" data-name="Path 55" d="M256.707,421.7a22.072,22.072,0,0,1-36.887-8.094" transform="translate(16.279 118.09)" fill="none" stroke="#263238" stroke-linecap="round" stroke-linejoin="round" stroke-width="1"/>
      <path id="Path_56" data-name="Path 56" d="M235.05,392.34a22.072,22.072,0,0,1,22.072,22.072" transform="translate(21.942 110.182)" fill="none" stroke="#263238" stroke-linecap="round" stroke-linejoin="round" stroke-width="1"/>
      <path id="Path_57" data-name="Path 57" d="M240.326,427.9A19.466,19.466,0,0,1,220.86,408.43h0" transform="translate(16.666 116.164)" fill="none" stroke="#263238" stroke-linecap="round" stroke-linejoin="round" stroke-width="1"/>
      <path id="Path_58" data-name="Path 58" d="M224,401.478a19.479,19.479,0,1,1,24.692,29.233" transform="translate(17.833 110.893)" fill="none" stroke="#263238" stroke-linecap="round" stroke-linejoin="round" stroke-width="1"/>
      <path id="Path_59" data-name="Path 59" d="M233.173,424.584l3.018-13.224-4.211-10.81" transform="translate(20.8 113.234)" fill="none" stroke="#263238" stroke-linecap="round" stroke-linejoin="round" stroke-width="1"/>
      <line id="Line_25" data-name="Line 25" x2="555" transform="translate(0 591.153)" fill="none" stroke="#263238" stroke-linecap="round" stroke-linejoin="round" stroke-width="1"/>
    </g>
    <g id="freepik--exam-sheets--inject-2" transform="translate(96.56 246.87)">
      <path id="Path_60" data-name="Path 60" d="M286.481,247.712l-9.04,172.119L162.91,413.823l.96-18.245,8.08-153.888,72.115,3.786Z" transform="translate(-53.729 -166.684)" fill="#fff"/>
      <g id="Group_7" data-name="Group 7" transform="translate(109.181 75.006)" clip-path="url(#clip-path)">
        <path id="Path_61" data-name="Path 61" d="M250.472,348.553l-25.8,2.126,7.531,32.5-68.59,12.4,8.08-153.888,72.115,3.786Z" transform="translate(-162.65 -241.69)" fill="rgba(0,0,0,0.7)" opacity="0.2"/>
      </g>
      <path id="Path_63" data-name="Path 63" d="M286.481,247.712l-9.04,172.119L162.91,413.823l.96-18.245,8.08-153.888,72.115,3.786Z" transform="translate(-53.729 -166.684)" fill="none" stroke="#263238" stroke-linecap="round" stroke-linejoin="round" stroke-width="1"/>
      <line id="Line_26" data-name="Line 26" x2="29.809" y2="1.564" transform="translate(126.301 86.776)" fill="none" stroke="#263238" stroke-linecap="round" stroke-linejoin="round" stroke-width="2"/>
      <line id="Line_27" data-name="Line 27" x2="20.275" y2="1.07" transform="translate(125.999 92.496)" fill="none" stroke="#263238" stroke-linecap="round" stroke-linejoin="round" stroke-width="2"/>
      <line id="Line_28" data-name="Line 28" x2="85.737" y2="4.499" transform="translate(132.556 106.393)" fill="none" stroke="#263238" stroke-linecap="round" stroke-linejoin="round" stroke-width="2"/>
      <line id="Line_29" data-name="Line 29" x2="85.737" y2="4.499" transform="translate(132.255 112.113)" fill="none" stroke="#263238" stroke-linecap="round" stroke-linejoin="round" stroke-width="2"/>
      <line id="Line_30" data-name="Line 30" x2="73.117" y2="3.827" transform="translate(131.912 118.793)" fill="none" stroke="#263238" stroke-linecap="round" stroke-linejoin="round" stroke-width="2"/>
      <rect id="Rectangle_3" data-name="Rectangle 3" width="6.982" height="6.982" transform="translate(131.575 131.86) rotate(-86.99)" fill="none" stroke="#263238" stroke-linecap="round" stroke-linejoin="round" stroke-width="1"/>
      <rect id="Rectangle_4" data-name="Rectangle 4" width="6.982" height="6.982" transform="translate(144.214 132.53) rotate(-86.99)" fill="none" stroke="#263238" stroke-linecap="round" stroke-linejoin="round" stroke-width="1"/>
      <rect id="Rectangle_5" data-name="Rectangle 5" width="6.982" height="6.982" transform="translate(156.837 133.2) rotate(-86.99)" fill="none" stroke="#263238" stroke-linecap="round" stroke-linejoin="round" stroke-width="1"/>
      <rect id="Rectangle_6" data-name="Rectangle 6" width="6.982" height="6.982" transform="translate(169.476 133.869) rotate(-86.99)" fill="none" stroke="#263238" stroke-linecap="round" stroke-linejoin="round" stroke-width="1"/>
      <path id="Path_64" data-name="Path 64" d="M177.556,264.885a1.728,1.728,0,0,1-1.8,1.66h0a1.751,1.751,0,1,1,1.824-1.674Z" transform="translate(-49.567 -158.74)" fill="#263238"/>
      <line id="Line_31" data-name="Line 31" x2="85.737" y2="4.499" transform="translate(130.8 139.768)" fill="none" stroke="#263238" stroke-linecap="round" stroke-linejoin="round" stroke-width="2"/>
      <line id="Line_32" data-name="Line 32" x2="85.737" y2="4.499" transform="translate(130.499 145.489)" fill="none" stroke="#263238" stroke-linecap="round" stroke-linejoin="round" stroke-width="2"/>
      <line id="Line_33" data-name="Line 33" x2="73.117" y2="3.827" transform="translate(130.156 152.169)" fill="none" stroke="#263238" stroke-linecap="round" stroke-linejoin="round" stroke-width="2"/>
      <rect id="Rectangle_7" data-name="Rectangle 7" width="6.982" height="6.982" transform="translate(129.804 165.258) rotate(-86.99)" fill="none" stroke="#263238" stroke-linecap="round" stroke-linejoin="round" stroke-width="1"/>
      <rect id="Rectangle_8" data-name="Rectangle 8" width="6.982" height="6.982" transform="translate(142.456 165.913) rotate(-86.99)" fill="none" stroke="#263238" stroke-linecap="round" stroke-linejoin="round" stroke-width="1"/>
      <rect id="Rectangle_9" data-name="Rectangle 9" width="6.982" height="6.982" transform="translate(155.08 166.57) rotate(-86.99)" fill="none" stroke="#263238" stroke-linecap="round" stroke-linejoin="round" stroke-width="1"/>
      <rect id="Rectangle_10" data-name="Rectangle 10" width="6.982" height="6.982" transform="translate(167.705 167.239) rotate(-86.99)" fill="none" stroke="#263238" stroke-linecap="round" stroke-linejoin="round" stroke-width="1"/>
      <path id="Path_65" data-name="Path 65" d="M176.3,289.221a1.742,1.742,0,0,1-1.825,1.66h0a1.756,1.756,0,1,1,1.838-1.674Z" transform="translate(-50.051 -149.7)" fill="#263238"/>
      <line id="Line_34" data-name="Line 34" x2="85.723" y2="4.499" transform="translate(129.058 173.144)" fill="none" stroke="#263238" stroke-linecap="round" stroke-linejoin="round" stroke-width="2"/>
      <line id="Line_35" data-name="Line 35" x2="85.723" y2="4.499" transform="translate(128.756 178.864)" fill="none" stroke="#263238" stroke-linecap="round" stroke-linejoin="round" stroke-width="2"/>
      <line id="Line_36" data-name="Line 36" x2="73.117" y2="3.841" transform="translate(128.4 185.531)" fill="none" stroke="#263238" stroke-linecap="round" stroke-linejoin="round" stroke-width="2"/>
      <rect id="Rectangle_11" data-name="Rectangle 11" width="6.982" height="6.982" transform="translate(128.061 198.613) rotate(-86.99)" fill="none" stroke="#263238" stroke-linecap="round" stroke-linejoin="round" stroke-width="1"/>
      <rect id="Rectangle_12" data-name="Rectangle 12" width="6.996" height="6.996" transform="matrix(0.05, -0.999, 0.999, 0.05, 142.196, 199.258)" fill="none" stroke="#263238" stroke-linecap="round" stroke-linejoin="round" stroke-width="1.001"/>
      <rect id="Rectangle_13" data-name="Rectangle 13" width="6.982" height="6.982" transform="translate(153.323 199.953) rotate(-86.99)" fill="none" stroke="#263238" stroke-linecap="round" stroke-linejoin="round" stroke-width="1"/>
      <rect id="Rectangle_14" data-name="Rectangle 14" width="6.982" height="6.982" transform="translate(165.976 200.608) rotate(-86.99)" fill="none" stroke="#263238" stroke-linecap="round" stroke-linejoin="round" stroke-width="1"/>
      <path id="Path_66" data-name="Path 66" d="M175.04,313.552a1.742,1.742,0,0,1-1.825,1.66h0a1.756,1.756,0,1,1,0-3.512h.247a1.742,1.742,0,0,1,1.66,1.824Z" transform="translate(-50.55 -140.655)" fill="#263238"/>
      <line id="Line_37" data-name="Line 37" x2="85.723" y2="4.513" transform="translate(127.247 207.466)" fill="none" stroke="#263238" stroke-linecap="round" stroke-linejoin="round" stroke-width="2"/>
      <line id="Line_38" data-name="Line 38" x2="85.737" y2="4.513" transform="translate(126.946 213.187)" fill="none" stroke="#263238" stroke-linecap="round" stroke-linejoin="round" stroke-width="2"/>
      <line id="Line_39" data-name="Line 39" x2="73.117" y2="3.841" transform="translate(126.603 219.867)" fill="none" stroke="#263238" stroke-linecap="round" stroke-linejoin="round" stroke-width="2"/>
      <rect id="Rectangle_15" data-name="Rectangle 15" width="6.982" height="6.982" transform="translate(126.244 232.952) rotate(-86.99)" fill="none" stroke="#263238" stroke-linecap="round" stroke-linejoin="round" stroke-width="1"/>
      <rect id="Rectangle_16" data-name="Rectangle 16" width="6.982" height="6.982" transform="translate(138.898 233.608) rotate(-86.99)" fill="none" stroke="#263238" stroke-linecap="round" stroke-linejoin="round" stroke-width="1"/>
      <rect id="Rectangle_17" data-name="Rectangle 17" width="6.982" height="6.982" transform="translate(151.55 234.264) rotate(-86.99)" fill="none" stroke="#263238" stroke-linecap="round" stroke-linejoin="round" stroke-width="1"/>
      <rect id="Rectangle_18" data-name="Rectangle 18" width="6.982" height="6.982" transform="translate(164.174 234.948) rotate(-86.99)" fill="none" stroke="#263238" stroke-linecap="round" stroke-linejoin="round" stroke-width="1"/>
      <path id="Path_67" data-name="Path 67" d="M173.694,338.579a1.742,1.742,0,1,1-.442-1.261,1.742,1.742,0,0,1,.442,1.261Z" transform="translate(-51.014 -131.346)" fill="#263238"/>
      <path id="Path_68" data-name="Path 68" d="M181.23,280.858l.905,1.564,3.718-4.1" transform="translate(-46.918 -153.065)" fill="none" stroke="#263238" stroke-linecap="round" stroke-linejoin="round" stroke-width="2"/>
      <path id="Path_69" data-name="Path 69" d="M198.39,305.848l.905,1.564,3.718-4.1" transform="translate(-40.538 -143.774)" fill="none" stroke="#263238" stroke-linecap="round" stroke-linejoin="round" stroke-width="2"/>
      <path id="Path_70" data-name="Path 70" d="M207,331.532l.905,1.564,3.718-4.115" transform="translate(-37.337 -134.23)" fill="none" stroke="#263238" stroke-linecap="round" stroke-linejoin="round" stroke-width="2"/>
      <path id="Path_71" data-name="Path 71" d="M186.6,354.452l.905,1.55,3.718-4.1" transform="translate(-44.921 -125.709)" fill="none" stroke="#263238" stroke-linecap="round" stroke-linejoin="round" stroke-width="2"/>
      <path id="Path_72" data-name="Path 72" d="M239.965,381.049l-110.5,30.714L83.32,245.681l45.749-12.717,64.749-17.984,41.867,150.678Z" transform="translate(-83.32 -176.615)" fill="#fff"/>
      <g id="Group_8" data-name="Group 8" transform="translate(0 38.365)" clip-path="url(#clip-path-2)">
        <path id="Path_73" data-name="Path 73" d="M223.286,365.658l-85.435,5.528L116.67,232.964l64.749-17.984Z" transform="translate(-70.921 -214.98)" fill="rgba(0,0,0,0.7)" opacity="0.2"/>
      </g>
      <path id="Path_75" data-name="Path 75" d="M239.965,381.049l-110.5,30.714L83.32,245.681l45.749-12.717,64.749-17.984,41.867,150.678Z" transform="translate(-83.32 -176.615)" fill="none" stroke="#263238" stroke-linecap="round" stroke-linejoin="round" stroke-width="1"/>
      <line id="Line_40" data-name="Line 40" y1="7.984" x2="28.753" transform="translate(11.413 69.67)" fill="none" stroke="#263238" stroke-linecap="round" stroke-linejoin="round" stroke-width="2"/>
      <line id="Line_41" data-name="Line 41" y1="5.432" x2="19.562" transform="translate(12.936 77.749)" fill="none" stroke="#263238" stroke-linecap="round" stroke-linejoin="round" stroke-width="2"/>
      <line id="Line_42" data-name="Line 42" y1="22.978" x2="82.719" transform="translate(23.567 71.288)" fill="none" stroke="#263238" stroke-linecap="round" stroke-linejoin="round" stroke-width="2"/>
      <line id="Line_43" data-name="Line 43" y1="22.978" x2="82.719" transform="translate(25.104 76.803)" fill="none" stroke="#263238" stroke-linecap="round" stroke-linejoin="round" stroke-width="2"/>
      <line id="Line_44" data-name="Line 44" y1="19.603" x2="70.551" transform="translate(26.887 86.625)" fill="none" stroke="#263238" stroke-linecap="round" stroke-linejoin="round" stroke-width="2"/>
      <rect id="Rectangle_19" data-name="Rectangle 19" width="6.982" height="6.982" transform="matrix(0.963, -0.268, 0.268, 0.963, 28.876, 112)" fill="none" stroke="#263238" stroke-linecap="round" stroke-linejoin="round" stroke-width="1"/>
      <rect id="Rectangle_20" data-name="Rectangle 20" width="6.982" height="6.982" transform="matrix(0.963, -0.268, 0.268, 0.963, 41.074, 108.598)" fill="none" stroke="#263238" stroke-linecap="round" stroke-linejoin="round" stroke-width="1"/>
      <rect id="Rectangle_21" data-name="Rectangle 21" width="6.982" height="6.982" transform="matrix(0.963, -0.268, 0.268, 0.963, 53.274, 105.206)" fill="none" stroke="#263238" stroke-linecap="round" stroke-linejoin="round" stroke-width="1"/>
      <rect id="Rectangle_22" data-name="Rectangle 22" width="6.982" height="6.982" transform="matrix(0.963, -0.268, 0.268, 0.963, 65.452, 101.825)" fill="none" stroke="#263238" stroke-linecap="round" stroke-linejoin="round" stroke-width="1"/>
      <path id="Path_76" data-name="Path 76" d="M98.218,256.966a1.744,1.744,0,1,1-2.147-1.214A1.744,1.744,0,0,1,98.218,256.966Z" transform="translate(-79.054 -161.48)" fill="#263238"/>
      <line id="Line_45" data-name="Line 45" y1="22.978" x2="82.719" transform="translate(32.511 103.484)" fill="none" stroke="#263238" stroke-linecap="round" stroke-linejoin="round" stroke-width="2"/>
      <line id="Line_46" data-name="Line 46" y1="22.991" x2="82.719" transform="translate(34.048 108.999)" fill="none" stroke="#263238" stroke-linecap="round" stroke-linejoin="round" stroke-width="2"/>
      <line id="Line_47" data-name="Line 47" y1="19.603" x2="70.538" transform="translate(35.845 118.821)" fill="none" stroke="#263238" stroke-linecap="round" stroke-linejoin="round" stroke-width="2"/>
      <rect id="Rectangle_23" data-name="Rectangle 23" width="6.982" height="6.982" transform="matrix(0.963, -0.268, 0.268, 0.963, 37.828, 144.189)" fill="none" stroke="#263238" stroke-linecap="round" stroke-linejoin="round" stroke-width="1"/>
      <rect id="Rectangle_24" data-name="Rectangle 24" width="6.982" height="6.982" transform="matrix(0.963, -0.268, 0.268, 0.963, 50.016, 140.804)" fill="none" stroke="#263238" stroke-linecap="round" stroke-linejoin="round" stroke-width="1"/>
      <rect id="Rectangle_25" data-name="Rectangle 25" width="6.982" height="6.982" transform="matrix(0.963, -0.268, 0.268, 0.963, 62.216, 137.416)" fill="none" stroke="#263238" stroke-linecap="round" stroke-linejoin="round" stroke-width="1"/>
      <rect id="Rectangle_26" data-name="Rectangle 26" width="6.982" height="6.982" transform="matrix(0.963, -0.268, 0.268, 0.963, 74.427, 134.01)" fill="none" stroke="#263238" stroke-linecap="round" stroke-linejoin="round" stroke-width="1"/>
      <path id="Path_77" data-name="Path 77" d="M104.755,280.449a1.756,1.756,0,1,1-2.167-1.221h0a1.742,1.742,0,0,1,2.154,1.207Z" transform="translate(-76.633 -152.752)" fill="#263238"/>
      <line id="Line_48" data-name="Line 48" y1="22.991" x2="82.705" transform="translate(41.469 135.68)" fill="none" stroke="#263238" stroke-linecap="round" stroke-linejoin="round" stroke-width="2"/>
      <line id="Line_49" data-name="Line 49" y1="22.978" x2="82.705" transform="translate(43.006 141.209)" fill="none" stroke="#263238" stroke-linecap="round" stroke-linejoin="round" stroke-width="2"/>
      <line id="Line_50" data-name="Line 50" y1="19.603" x2="70.551" transform="translate(44.789 151.031)" fill="none" stroke="#263238" stroke-linecap="round" stroke-linejoin="round" stroke-width="2"/>
      <rect id="Rectangle_27" data-name="Rectangle 27" width="6.982" height="6.982" transform="matrix(0.963, -0.268, 0.268, 0.963, 46.767, 176.385)" fill="none" stroke="#263238" stroke-linecap="round" stroke-linejoin="round" stroke-width="1"/>
      <rect id="Rectangle_28" data-name="Rectangle 28" width="6.982" height="6.982" transform="matrix(0.963, -0.268, 0.268, 0.963, 58.981, 172.993)" fill="none" stroke="#263238" stroke-linecap="round" stroke-linejoin="round" stroke-width="1"/>
      <rect id="Rectangle_29" data-name="Rectangle 29" width="6.982" height="6.982" transform="matrix(0.963, -0.268, 0.268, 0.963, 71.155, 169.608)" fill="none" stroke="#263238" stroke-linecap="round" stroke-linejoin="round" stroke-width="1"/>
      <rect id="Rectangle_30" data-name="Rectangle 30" width="6.982" height="6.982" transform="matrix(0.963, -0.268, 0.268, 0.963, 83.356, 166.22)" fill="none" stroke="#263238" stroke-linecap="round" stroke-linejoin="round" stroke-width="1"/>
      <path id="Path_78" data-name="Path 78" d="M111.275,303.919a1.756,1.756,0,1,1-2.167-1.221h0a1.742,1.742,0,0,1,2.154,1.207Z" transform="translate(-74.209 -144.026)" fill="#263238"/>
      <line id="Line_51" data-name="Line 51" y1="22.978" x2="82.705" transform="translate(50.674 168.809)" fill="none" stroke="#263238" stroke-linecap="round" stroke-linejoin="round" stroke-width="2"/>
      <line id="Line_52" data-name="Line 52" y1="22.991" x2="82.719" transform="translate(52.197 174.324)" fill="none" stroke="#263238" stroke-linecap="round" stroke-linejoin="round" stroke-width="2"/>
      <line id="Line_53" data-name="Line 53" y1="19.603" x2="70.551" transform="translate(53.994 184.146)" fill="none" stroke="#263238" stroke-linecap="round" stroke-linejoin="round" stroke-width="2"/>
      <rect id="Rectangle_31" data-name="Rectangle 31" width="6.982" height="6.982" transform="matrix(0.963, -0.268, 0.268, 0.963, 55.973, 209.516)" fill="none" stroke="#263238" stroke-linecap="round" stroke-linejoin="round" stroke-width="1"/>
      <rect id="Rectangle_32" data-name="Rectangle 32" width="6.982" height="6.982" transform="matrix(0.963, -0.268, 0.268, 0.963, 68.173, 206.124)" fill="none" stroke="#263238" stroke-linecap="round" stroke-linejoin="round" stroke-width="1"/>
      <rect id="Rectangle_33" data-name="Rectangle 33" width="6.982" height="6.982" transform="matrix(0.963, -0.268, 0.268, 0.963, 80.374, 202.736)" fill="none" stroke="#263238" stroke-linecap="round" stroke-linejoin="round" stroke-width="1"/>
      <rect id="Rectangle_34" data-name="Rectangle 34" width="6.982" height="6.982" transform="matrix(0.963, -0.268, 0.268, 0.963, 92.562, 199.351)" fill="none" stroke="#263238" stroke-linecap="round" stroke-linejoin="round" stroke-width="1"/>
      <path id="Path_79" data-name="Path 79" d="M117.983,328.055a1.756,1.756,0,1,1-2.167-1.207h0a1.756,1.756,0,0,1,2.154,1.193Z" transform="translate(-71.712 -135.047)" fill="#263238"/>
      <path id="Path_80" data-name="Path 80" d="M115.04,268.832l1.358,1.193,2.222-5.076" transform="translate(-71.527 -158.036)" fill="none" stroke="#263238" stroke-linecap="round" stroke-linejoin="round" stroke-width="2"/>
      <path id="Path_81" data-name="Path 81" d="M112.63,295.022l1.358,1.193,2.209-5.076" transform="translate(-72.423 -148.299)" fill="none" stroke="#263238" stroke-linecap="round" stroke-linejoin="round" stroke-width="2"/>
      <path id="Path_82" data-name="Path 82" d="M119.15,318.252l1.358,1.193,2.209-5.076" transform="translate(-69.999 -139.662)" fill="none" stroke="#263238" stroke-linecap="round" stroke-linejoin="round" stroke-width="2"/>
      <path id="Path_83" data-name="Path 83" d="M143.62,337.282l1.358,1.193L147.2,333.4" transform="translate(-60.901 -132.587)" fill="none" stroke="#263238" stroke-linecap="round" stroke-linejoin="round" stroke-width="2"/>
      <rect id="Rectangle_35" data-name="Rectangle 35" width="114.682" height="172.366" transform="translate(53.279 10.972) rotate(-5.49)" fill="#fff" stroke="#263238" stroke-linecap="round" stroke-linejoin="round" stroke-width="1"/>
      <line id="Line_54" data-name="Line 54" y1="2.853" x2="29.713" transform="translate(63.006 18.584)" fill="none" stroke="#263238" stroke-linecap="round" stroke-linejoin="round" stroke-width="2"/>
      <line id="Line_55" data-name="Line 55" y1="1.948" x2="20.207" transform="translate(63.555 25.196)" fill="none" stroke="#263238" stroke-linecap="round" stroke-linejoin="round" stroke-width="2"/>
      <line id="Line_56" data-name="Line 56" y1="8.217" x2="85.449" transform="translate(72.088 31.698)" fill="none" stroke="#263238" stroke-linecap="round" stroke-linejoin="round" stroke-width="2"/>
      <line id="Line_57" data-name="Line 57" y1="8.203" x2="85.449" transform="translate(72.636 37.405)" fill="none" stroke="#263238" stroke-linecap="round" stroke-linejoin="round" stroke-width="2"/>
      <line id="Line_58" data-name="Line 58" y1="6.996" x2="72.883" transform="translate(73.281 45.265)" fill="none" stroke="#263238" stroke-linecap="round" stroke-linejoin="round" stroke-width="2"/>
      <rect id="Rectangle_36" data-name="Rectangle 36" width="6.982" height="6.982" transform="translate(74.241 58.279) rotate(-5.49)" fill="none" stroke="#263238" stroke-linecap="round" stroke-linejoin="round" stroke-width="1"/>
      <rect id="Rectangle_37" data-name="Rectangle 37" width="6.982" height="6.982" transform="translate(86.839 57.065) rotate(-5.49)" fill="none" stroke="#263238" stroke-linecap="round" stroke-linejoin="round" stroke-width="1"/>
      <rect id="Rectangle_38" data-name="Rectangle 38" width="6.982" height="6.982" transform="translate(99.437 55.866) rotate(-5.49)" fill="none" stroke="#263238" stroke-linecap="round" stroke-linejoin="round" stroke-width="1"/>
      <rect id="Rectangle_39" data-name="Rectangle 39" width="6.982" height="6.982" transform="translate(112.034 54.639) rotate(-5.49)" fill="none" stroke="#263238" stroke-linecap="round" stroke-linejoin="round" stroke-width="1"/>
      <path id="Path_84" data-name="Path 84" d="M133.51,216.86a1.756,1.756,0,1,1-1.921-1.578h0a1.742,1.742,0,0,1,1.907,1.564Z" transform="translate(-65.963 -176.506)" fill="#263238"/>
      <line id="Line_59" data-name="Line 59" y1="8.203" x2="85.449" transform="translate(75.284 64.978)" fill="none" stroke="#263238" stroke-linecap="round" stroke-linejoin="round" stroke-width="2"/>
      <line id="Line_60" data-name="Line 60" y1="8.217" x2="85.449" transform="translate(75.833 70.671)" fill="none" stroke="#263238" stroke-linecap="round" stroke-linejoin="round" stroke-width="2"/>
      <line id="Line_61" data-name="Line 61" y1="7.01" x2="72.883" transform="translate(76.477 78.531)" fill="none" stroke="#263238" stroke-linecap="round" stroke-linejoin="round" stroke-width="2"/>
      <rect id="Rectangle_40" data-name="Rectangle 40" width="6.982" height="6.982" transform="translate(77.436 91.54) rotate(-5.49)" fill="none" stroke="#263238" stroke-linecap="round" stroke-linejoin="round" stroke-width="1"/>
      <rect id="Rectangle_41" data-name="Rectangle 41" width="6.982" height="6.982" transform="translate(90.034 90.339) rotate(-5.49)" fill="none" stroke="#263238" stroke-linecap="round" stroke-linejoin="round" stroke-width="1"/>
      <rect id="Rectangle_42" data-name="Rectangle 42" width="6.982" height="6.982" transform="translate(102.632 89.126) rotate(-5.49)" fill="none" stroke="#263238" stroke-linecap="round" stroke-linejoin="round" stroke-width="1"/>
      <rect id="Rectangle_43" data-name="Rectangle 43" width="6.982" height="6.982" transform="translate(115.232 87.941) rotate(-5.49)" fill="none" stroke="#263238" stroke-linecap="round" stroke-linejoin="round" stroke-width="1"/>
      <path id="Path_85" data-name="Path 85" d="M135.84,241.11a1.756,1.756,0,1,1-1.921-1.578h0a1.756,1.756,0,0,1,1.921,1.578Z" transform="translate(-65.096 -167.49)" fill="#263238"/>
      <line id="Line_62" data-name="Line 62" y1="8.203" x2="85.449" transform="translate(78.48 98.244)" fill="none" stroke="#263238" stroke-linecap="round" stroke-linejoin="round" stroke-width="2"/>
      <line id="Line_63" data-name="Line 63" y1="8.217" x2="85.449" transform="translate(79.029 103.937)" fill="none" stroke="#263238" stroke-linecap="round" stroke-linejoin="round" stroke-width="2"/>
      <line id="Line_64" data-name="Line 64" y1="7.01" x2="72.883" transform="translate(79.674 111.797)" fill="none" stroke="#263238" stroke-linecap="round" stroke-linejoin="round" stroke-width="2"/>
      <rect id="Rectangle_44" data-name="Rectangle 44" width="6.982" height="6.982" transform="translate(80.631 124.814) rotate(-5.49)" fill="none" stroke="#263238" stroke-linecap="round" stroke-linejoin="round" stroke-width="1"/>
      <rect id="Rectangle_45" data-name="Rectangle 45" width="6.982" height="6.982" transform="translate(93.229 123.601) rotate(-5.49)" fill="none" stroke="#263238" stroke-linecap="round" stroke-linejoin="round" stroke-width="1"/>
      <rect id="Rectangle_46" data-name="Rectangle 46" width="6.982" height="6.982" transform="translate(105.827 122.4) rotate(-5.49)" fill="none" stroke="#263238" stroke-linecap="round" stroke-linejoin="round" stroke-width="1"/>
      <rect id="Rectangle_47" data-name="Rectangle 47" width="6.982" height="6.982" transform="translate(118.426 121.187) rotate(-5.49)" fill="none" stroke="#263238" stroke-linecap="round" stroke-linejoin="round" stroke-width="1"/>
      <path id="Path_86" data-name="Path 86" d="M138.152,265.36a1.742,1.742,0,1,1-1.893-1.578A1.742,1.742,0,0,1,138.152,265.36Z" transform="translate(-64.227 -158.473)" fill="#263238"/>
      <line id="Line_65" data-name="Line 65" y1="8.217" x2="85.449" transform="translate(81.773 132.457)" fill="none" stroke="#263238" stroke-linecap="round" stroke-linejoin="round" stroke-width="2"/>
      <line id="Line_66" data-name="Line 66" y1="8.203" x2="85.449" transform="translate(82.321 138.163)" fill="none" stroke="#263238" stroke-linecap="round" stroke-linejoin="round" stroke-width="2"/>
      <line id="Line_67" data-name="Line 67" y1="6.996" x2="72.883" transform="translate(82.952 146.024)" fill="none" stroke="#263238" stroke-linecap="round" stroke-linejoin="round" stroke-width="2"/>
      <rect id="Rectangle_48" data-name="Rectangle 48" width="6.982" height="6.982" transform="translate(83.918 159.034) rotate(-5.49)" fill="none" stroke="#263238" stroke-linecap="round" stroke-linejoin="round" stroke-width="1"/>
      <rect id="Rectangle_49" data-name="Rectangle 49" width="6.982" height="6.982" transform="translate(96.53 157.834) rotate(-5.49)" fill="none" stroke="#263238" stroke-linecap="round" stroke-linejoin="round" stroke-width="1"/>
      <rect id="Rectangle_50" data-name="Rectangle 50" width="6.982" height="6.982" transform="translate(109.113 156.608) rotate(-5.49)" fill="none" stroke="#263238" stroke-linecap="round" stroke-linejoin="round" stroke-width="1"/>
      <rect id="Rectangle_51" data-name="Rectangle 51" width="6.982" height="6.982" transform="translate(121.711 155.394) rotate(-5.49)" fill="none" stroke="#263238" stroke-linecap="round" stroke-linejoin="round" stroke-width="1"/>
      <path id="Path_87" data-name="Path 87" d="M140.559,290.3a1.742,1.742,0,1,1-.629-1.177,1.756,1.756,0,0,1,.629,1.177Z" transform="translate(-63.341 -149.197)" fill="#263238"/>
      <path id="Path_88" data-name="Path 88" d="M139.44,232.216l1.125,1.413,3.073-4.609" transform="translate(-62.455 -171.395)" fill="none" stroke="#263238" stroke-linecap="round" stroke-linejoin="round" stroke-width="2"/>
      <path id="Path_89" data-name="Path 89" d="M160.11,254.4l1.125,1.413,3.059-4.609" transform="translate(-54.77 -163.148)" fill="none" stroke="#263238" stroke-linecap="round" stroke-linejoin="round" stroke-width="2"/>
      <path id="Path_90" data-name="Path 90" d="M153.3,280.036l1.125,1.413,3.073-4.609" transform="translate(-57.302 -153.616)" fill="none" stroke="#263238" stroke-linecap="round" stroke-linejoin="round" stroke-width="2"/>
      <path id="Path_91" data-name="Path 91" d="M173.93,303.026l1.125,1.413,3.073-4.609" transform="translate(-49.632 -145.068)" fill="none" stroke="#263238" stroke-linecap="round" stroke-linejoin="round" stroke-width="2"/>
    </g>
    <g id="freepik--Bubble--inject-2" transform="translate(323.289 179.237)">
      <path id="Path_92" data-name="Path 92" d="M328.918,137.71h-70.88a9.438,9.438,0,0,0-9.438,9.438h0v60.921a9.438,9.438,0,0,0,9.438,9.438h31.414l18,21.688-4.513-21.688h25.982a9.438,9.438,0,0,0,9.4-9.438V147.148a9.438,9.438,0,0,0-9.4-9.438Z" transform="translate(-248.6 -137.71)" fill="#fff" stroke="#263238" stroke-linecap="round" stroke-linejoin="round" stroke-width="1"/>
      <path id="Path_93" data-name="Path 93" d="M295.061,167.74v-6.447l-4.829-.412a13.992,13.992,0,0,0-1.193-2.895l3.114-3.7-4.568-4.554-3.7,3.114a13,13,0,0,0-2.894-1.193l-.412-4.829h-6.447l-.412,4.829a13,13,0,0,0-2.894,1.193l-3.7-3.114-4.568,4.554,3.086,3.759a13.718,13.718,0,0,0-1.207,2.894l-4.829.412v6.447l4.829.425a13.716,13.716,0,0,0,1.207,2.894l-3.128,3.7,4.568,4.554,3.7-3.114a13.006,13.006,0,0,0,2.895,1.193l.411,4.829h6.447l.412-4.829a13.008,13.008,0,0,0,2.894-1.193l3.7,3.114,4.568-4.554-3.114-3.7a13.986,13.986,0,0,0,1.193-2.894Zm-17.71,4.28a7.5,7.5,0,1,1,7.49-7.517h0a7.476,7.476,0,0,1-7.476,7.5Z" transform="translate(-244.51 -134.323)" fill="#ffc100"/>
      <path id="Path_94" data-name="Path 94" d="M307.83,176.594v-4.582l-3.443-.3a9.3,9.3,0,0,0-.851-2.058l2.222-2.634-3.237-3.237-2.648,2.209a10,10,0,0,0-2.058-.851l-.288-3.429h-4.6l-.288,3.429a10.122,10.122,0,0,0-2.071.851l-2.634-2.209-3.237,3.237,2.209,2.634a9.259,9.259,0,0,0-.837,2.058l-3.443.3v4.582l3.443.3a9.257,9.257,0,0,0,.837,2.058l-2.209,2.634,3.237,3.251,2.634-2.222a8.779,8.779,0,0,0,2.071.85l.288,3.443h4.6l.288-3.443a8.684,8.684,0,0,0,2.058-.85l2.648,2.222,3.237-3.251-2.222-2.634a8.685,8.685,0,0,0,.85-2.058Zm-12.607,3.045a5.336,5.336,0,1,1,5.336-5.336,5.336,5.336,0,0,1-5.336,5.336Z" transform="translate(-235.948 -128.787)" fill="#ffc100"/>
      <path id="Path_95" data-name="Path 95" d="M289.5,183.213v-3.224l-2.456-.219a6.491,6.491,0,0,0-.6-1.468l1.578-1.866-2.3-2.318-1.879,1.578a7.929,7.929,0,0,0-1.454-.6l-.22-2.442H278.9l-.206,2.442a7.19,7.19,0,0,0-1.468.6l-1.879-1.578-2.3,2.318,1.578,1.866a7.188,7.188,0,0,0-.6,1.468l-2.442.219v3.251l2.442.22a7.187,7.187,0,0,0,.6,1.468l-1.578,1.921,2.3,2.318,1.879-1.578a8.055,8.055,0,0,0,1.468.6l.206,2.442h3.265l.22-2.442a7.928,7.928,0,0,0,1.454-.6l1.879,1.578,2.3-2.318-1.578-1.866a6.49,6.49,0,0,0,.6-1.468Zm-8.972,2.167a3.8,3.8,0,1,1,3.8-3.8h0a3.8,3.8,0,0,1-3.8,3.786Z" transform="translate(-240.06 -124.72)" fill="#ffc100"/>
    </g>
    <g id="freepik--Character--inject-2" transform="translate(296.622 281.586)">
      <path id="Path_96" data-name="Path 96" d="M279.93,308.37l55.256,203.821h8.258L288.2,308.37Z" transform="translate(-210.284 -176.608)" fill="#757575" stroke="#263238" stroke-linecap="round" stroke-linejoin="round" stroke-width="1"/>
      <rect id="Rectangle_52" data-name="Rectangle 52" width="104.736" height="8.533" transform="translate(89.359 277.803)" fill="#999" stroke="#263238" stroke-linecap="round" stroke-linejoin="round" stroke-width="1"/>
      <path id="Path_97" data-name="Path 97" d="M459.36,281.692,391.689,531.359h-8.231l67.657-249.666c2.5-9.2-3.224-16.695-12.758-16.695h-58.3c-9.52,0-19.315,7.49-21.811,16.695L290.561,531.359H282.33L350,281.692C353.691,268.07,368.122,257,382.224,257h58.315C454.6,257,463.05,268.057,459.36,281.692Z" transform="translate(-209.392 -195.707)" fill="#757575" stroke="#263238" stroke-linecap="round" stroke-linejoin="round" stroke-width="1"/>
      <path id="Path_98" data-name="Path 98" d="M447.984,277.557l-16.791,61.978a13.21,13.21,0,0,1-12.1,9.287H323.289a6.941,6.941,0,0,1-7.078-9.26l16.8-61.978a13.224,13.224,0,0,1,12.1-9.26h95.792a6.969,6.969,0,0,1,7.449,6.461A7.065,7.065,0,0,1,447.984,277.557Z" transform="translate(-196.946 -191.503)" fill="#ffc100"/>
      <g id="Group_9" data-name="Group 9" transform="translate(118.857 76.804)" clip-path="url(#clip-path-3)">
        <path id="Path_99" data-name="Path 99" d="M447.984,277.561l-16.791,61.978a13.21,13.21,0,0,1-12.1,9.287H323.289a6.941,6.941,0,0,1-7.078-9.26l16.8-61.978a13.224,13.224,0,0,1,12.1-9.26h49.536c21.414,21.949,18.684,62.4,17.285,74.612a13.361,13.361,0,0,0,9.6-8.944L438.3,272a8.384,8.384,0,0,0,.206-3.69h2.4a6.969,6.969,0,0,1,7.078,9.246Z" transform="translate(-315.804 -268.311)" fill="rgba(0,0,0,0.7)" opacity="0.2"/>
      </g>
      <path id="Path_101" data-name="Path 101" d="M447.984,277.557l-16.791,61.978a13.21,13.21,0,0,1-12.1,9.287H323.289a6.941,6.941,0,0,1-7.078-9.26l16.8-61.978a13.224,13.224,0,0,1,12.1-9.26h95.792a6.969,6.969,0,0,1,7.449,6.461A7.065,7.065,0,0,1,447.984,277.557Z" transform="translate(-196.946 -191.503)" fill="none" stroke="#263238" stroke-linecap="round" stroke-linejoin="round" stroke-width="1"/>
      <path id="Path_102" data-name="Path 102" d="M371.1,372.71l31.332,115.56h8.258L379.372,372.71Z" transform="translate(-176.388 -152.687)" fill="#757575" stroke="#263238" stroke-linecap="round" stroke-linejoin="round" stroke-width="1"/>
      <path id="Path_103" data-name="Path 103" d="M410.582,365.253v11.3H287.23v-11.3a8.313,8.313,0,0,1,8.313-8.313H402.255a8.3,8.3,0,0,1,8.327,8.313Z" transform="translate(-207.57 -158.55)" fill="#ffc100"/>
      <g id="Group_10" data-name="Group 10" transform="translate(79.66 198.39)" clip-path="url(#clip-path-4)">
        <path id="Path_104" data-name="Path 104" d="M410.294,363.127c-3.992,4.692-11.153,9.465-23.471,13.485H287.23V365.253a8.313,8.313,0,0,1,8.313-8.313H402.255A8.327,8.327,0,0,1,410.294,363.127Z" transform="translate(-287.23 -356.94)" fill="rgba(0,0,0,0.7)" opacity="0.2"/>
      </g>
      <path id="Path_106" data-name="Path 106" d="M410.582,365.253v11.3H287.23v-11.3a8.313,8.313,0,0,1,8.313-8.313H402.255a8.3,8.3,0,0,1,8.327,8.313Z" transform="translate(-207.57 -158.55)" fill="none" stroke="#263238" stroke-linecap="round" stroke-linejoin="round" stroke-width="1"/>
      <rect id="Rectangle_53" data-name="Rectangle 53" width="135.341" height="10.604" rx="1.71" transform="translate(74.2 214.591)" fill="#999" stroke="#263238" stroke-linecap="round" stroke-linejoin="round" stroke-width="1"/>
      <path id="Path_107" data-name="Path 107" d="M293.3,387.262c-5.912,6.022,22.744,100.648,22.744,100.648-3.128,2.744-7.737,4.006-12.1,4.582a55.636,55.636,0,0,1-12.085.178s-41.071-99.62-29.768-124.339,81.443-35.941,81.443-35.941l2.991-7.408,36.284-5.1,5.995,44.432s-5.954.576-14.911,1.728C349.874,369.086,304.166,376.288,293.3,387.262Z" transform="translate(-217.647 -172.329)" fill="#263238"/>
      <g id="Group_11" data-name="Group 11" transform="translate(42.478 147.551)" clip-path="url(#clip-path-5)">
        <path id="Path_108" data-name="Path 108" d="M310.208,482.564c-3.128,2.744-7.737,4.006-12.1,4.582-7.97-29.631-28.259-108.7-20.577-118.372,9.479-11.935,56.394-22.785,56.394-22.785.192-6.091,16.64-11.578,16.64-11.578L368.043,360.6c-24.02,3.087-69.728,10.288-80.593,21.263C281.552,387.937,310.208,482.564,310.208,482.564Z" transform="translate(-254.288 -314.478)" opacity="0.3"/>
      </g>
      <path id="Path_110" data-name="Path 110" d="M293.3,387.262c-5.912,6.022,22.744,100.648,22.744,100.648-3.128,2.744-7.737,4.006-12.1,4.582a55.636,55.636,0,0,1-12.085.178s-41.071-99.62-29.768-124.339,81.443-35.941,81.443-35.941l2.991-7.408,36.284-5.1,5.995,44.432s-5.954.576-14.911,1.728C349.874,369.086,304.166,376.288,293.3,387.262Z" transform="translate(-217.647 -172.329)" fill="none" stroke="#263238" stroke-linecap="round" stroke-linejoin="round" stroke-width="1"/>
      <path id="Path_111" data-name="Path 111" d="M269.667,314.176c-6.022-1.029,36.846-38.616,36.846-38.616l20.673,13.91s-35.173,24.775-40.7,25.447S269.667,314.176,269.667,314.176Z" transform="translate(-214.315 -188.807)" fill="#fff"/>
      <g id="Group_12" data-name="Group 12" transform="translate(54.772 86.753)" clip-path="url(#clip-path-6)">
        <path id="Path_112" data-name="Path 112" d="M269.667,314.176c-6.022-1.029,36.846-38.616,36.846-38.616l20.673,13.91s-35.173,24.775-40.7,25.447S269.667,314.176,269.667,314.176Z" transform="translate(-269.087 -275.56)" fill="rgba(0,0,0,0.7)" opacity="0.2"/>
      </g>
      <path id="Path_114" data-name="Path 114" d="M269.667,314.176c-6.022-1.029,36.846-38.616,36.846-38.616l20.673,13.91s-35.173,24.775-40.7,25.447S269.667,314.176,269.667,314.176Z" transform="translate(-214.315 -188.807)" fill="none" stroke="#263238" stroke-linecap="round" stroke-linejoin="round" stroke-width="1"/>
      <path id="Path_115" data-name="Path 115" d="M275,292.19s8.985,2.236,11.743,4.115,1.962,8.67,1.962,8.67S276.728,301.6,275,292.19Z" transform="translate(-212.117 -182.624)" fill="#fff" stroke="#263238" stroke-linecap="round" stroke-linejoin="round" stroke-width="1"/>
      <path id="Path_116" data-name="Path 116" d="M270.82,280.068l16.708,32.045H289.5L273.632,278.49Z" transform="translate(-213.671 -187.717)" fill="#263238"/>
      <path id="Path_117" data-name="Path 117" d="M288.147,298.56s-10.535-7.49-13.114-7.49-10.3,9.122-10.3,13.718,16.846,7.106,20.138,3.224c1.646-1.934-1.619-6.6-1.619-6.6a61.747,61.747,0,0,0,6.3,5.83c1.372.768,3.992-.233,3.992-.233S290.026,301.386,288.147,298.56Z" transform="translate(-215.935 -183.04)" fill="#fff" stroke="#263238" stroke-linecap="round" stroke-linejoin="round" stroke-width="1"/>
      <path id="Path_118" data-name="Path 118" d="M280.613,306.272a31.636,31.636,0,0,0-8.793-7.682" transform="translate(-213.299 -180.244)" fill="none" stroke="#263238" stroke-linecap="round" stroke-linejoin="round" stroke-width="1"/>
      <path id="Path_119" data-name="Path 119" d="M279.884,299.642s-3.649-3.183-6.1-3.882" transform="translate(-212.571 -181.296)" fill="none" stroke="#263238" stroke-linecap="round" stroke-linejoin="round" stroke-width="1"/>
      <path id="Path_120" data-name="Path 120" d="M269.86,301.54a64.6,64.6,0,0,1,7.367,4.417" transform="translate(-214.028 -179.147)" fill="none" stroke="#263238" stroke-linecap="round" stroke-linejoin="round" stroke-width="1"/>
      <path id="Path_121" data-name="Path 121" d="M314.183,263.58c-5.391,3.759-29.6,28.657-29.6,28.657s11.345,12.909,21.29,14.774l26.956-13.087Z" transform="translate(-208.555 -193.261)" fill="#ffc100" stroke="#263238" stroke-linecap="round" stroke-linejoin="round" stroke-width="1"/>
      <path id="Path_122" data-name="Path 122" d="M314.183,263.58c-5.391,3.759-29.6,28.657-29.6,28.657s11.345,12.909,21.29,14.774l26.956-13.087Z" transform="translate(-208.555 -193.261)" fill="#fff" stroke="#263238" stroke-linecap="round" stroke-linejoin="round" stroke-width="1" opacity="0.4"/>
      <path id="Path_123" data-name="Path 123" d="M307.545,435.09l11.427,30.056s1.893,7.723-32.566,5.281l-18.986-1.619Z" transform="translate(-214.935 -129.495)" fill="#ffc100"/>
      <g id="Group_13" data-name="Group 13" transform="translate(52.485 305.595)" clip-path="url(#clip-path-7)">
        <path id="Path_124" data-name="Path 124" d="M307.545,435.09l11.427,30.056s1.893,7.723-32.566,5.281l-18.986-1.619Z" transform="translate(-267.42 -435.09)" opacity="0.3"/>
      </g>
      <path id="Path_126" data-name="Path 126" d="M307.545,435.09l11.427,30.056s1.893,7.723-32.566,5.281l-18.986-1.619Z" transform="translate(-214.935 -129.495)" fill="none" stroke="#263238" stroke-linecap="round" stroke-linejoin="round" stroke-width="1"/>
      <path id="Path_127" data-name="Path 127" d="M309.181,447.42s2.442,11.674,0,20.357c0,0-36.366,5.693-44.5,3.526s-13.073-6.228-13.32-8.231c0,0,.288-5.569,8.436-7.2s24.349-2.744,30.756-11.935S309.181,447.42,309.181,447.42Z" transform="translate(-220.906 -127.449)" fill="#ffc100" stroke="#263238" stroke-linecap="round" stroke-linejoin="round" stroke-width="1"/>
      <path id="Path_128" data-name="Path 128" d="M348.771,324.5c11.619-16.571,65.037,3.375,65.037,3.375s5.089,39.892-16.187,50.537-51.95,10.069-60.235,18.7l-33.719,99.565s-12.113,5.062-29.727-2.908c0,0,21.414-75.188,27.7-101.883,6.214-26.421,46.449-44.35,46.449-44.35a24.433,24.433,0,0,1-4.623-8.34" transform="translate(-212.511 -173.057)" fill="#263238" stroke="#263238" stroke-linecap="round" stroke-linejoin="round" stroke-width="1"/>
      <path id="Path_129" data-name="Path 129" d="M369.364,350.52A58.977,58.977,0,0,1,364,354.745" transform="translate(-179.027 -160.937)" fill="none" stroke="#fff" stroke-linecap="round" stroke-linejoin="round" stroke-width="1"/>
      <path id="Path_130" data-name="Path 130" d="M371.472,325.89c4.362,9.465,4.705,21.482-1.372,30.248" transform="translate(-176.76 -170.094)" fill="none" stroke="#fff" stroke-linecap="round" stroke-linejoin="round" stroke-width="1"/>
      <path id="Path_131" data-name="Path 131" d="M362.28,327s-1.111,7.3,2.14,10.192,13.224,4.362,13.224,4.362" transform="translate(-179.735 -169.682)" fill="none" stroke="#fff" stroke-linecap="round" stroke-linejoin="round" stroke-width="1"/>
      <path id="Path_132" data-name="Path 132" d="M331.827,327.24s.453,7.271-2.5,6.928-3.1,2.908-3.1,2.908" transform="translate(-193.07 -169.592)" fill="none" stroke="#fff" stroke-linecap="round" stroke-linejoin="round" stroke-width="1"/>
      <path id="Path_133" data-name="Path 133" d="M306.873,272.917a24.824,24.824,0,0,1-.713-5.6s16.461-13.883,37.656-13.8c25.241.082,40.674,8.025,46.847,19.054,9.795,17.449,11.166,79.248,11.166,79.248s-63.336,9.767-72.417-2.209c-1.578-2.085-.37-16.8-.37-16.8s-7.092-18.6-8.587-33.033a104.875,104.875,0,0,1-5.8-8.917,83.672,83.672,0,0,1-5.844-11.811" transform="translate(-200.532 -197.001)" fill="#ffc100" stroke="#263238" stroke-linecap="round" stroke-linejoin="round" stroke-width="1"/>
      <path id="Path_134" data-name="Path 134" d="M306.873,272.917a24.824,24.824,0,0,1-.713-5.6s16.461-13.883,37.656-13.8c25.241.082,40.674,8.025,46.847,19.054,9.795,17.449,11.166,79.248,11.166,79.248s-63.336,9.767-72.417-2.209c-1.578-2.085-.37-16.8-.37-16.8s-7.092-18.6-8.587-33.033a104.875,104.875,0,0,1-5.8-8.917,83.672,83.672,0,0,1-5.844-11.811" transform="translate(-200.532 -197.001)" fill="#fff" stroke="#263238" stroke-linecap="round" stroke-linejoin="round" stroke-width="1" opacity="0.6"/>
      <path id="Path_135" data-name="Path 135" d="M324.36,278.49s9.671,37.519,8.231,45.777a15.091,15.091,0,0,0,1.372,8.327,8.725,8.725,0,0,0-1.372,10.124" transform="translate(-193.765 -187.717)" fill="none" stroke="#263238" stroke-linecap="round" stroke-linejoin="round" stroke-width="1"/>
      <path id="Path_136" data-name="Path 136" d="M345.153,305.265a9.6,9.6,0,0,1-4.856-1.536l-2.867-12.566a53.146,53.146,0,0,0,16.983-1.193l3.073,13.718a45.955,45.955,0,0,1-5.254,1.139" transform="translate(-188.906 -183.449)" fill="none" stroke="#263238" stroke-linecap="round" stroke-linejoin="round" stroke-width="1"/>
      <path id="Path_137" data-name="Path 137" d="M319.786,292.919s-8.231-35.063,12.538-39.137,25.035,5.624,23.814,12.2c-1.632,8.766-18.848,30.262-18.848,30.262l-10.631-8.231Z" transform="translate(-196.064 -197.263)" fill="#ffc100" stroke="#263238" stroke-linecap="round" stroke-linejoin="round" stroke-width="1"/>
      <path id="Path_138" data-name="Path 138" d="M319.786,292.919s-8.231-35.063,12.538-39.137,25.035,5.624,23.814,12.2c-1.632,8.766-18.848,30.262-18.848,30.262l-10.631-8.231Z" transform="translate(-196.064 -197.263)" fill="#fff" stroke="#263238" stroke-linecap="round" stroke-linejoin="round" stroke-width="1" opacity="0.4"/>
      <path id="Path_139" data-name="Path 139" d="M299.49,369.9s13.416-15.488,43.705-27.189c0,0-7.847-2.4-9.6-5.665" transform="translate(-203.012 -165.945)" fill="none" stroke="#fff" stroke-linecap="round" stroke-linejoin="round" stroke-width="1"/>
      <line id="Line_68" data-name="Line 68" x1="12.264" y2="44.528" transform="translate(68.439 251.355)" fill="none" stroke="#fff" stroke-linecap="round" stroke-linejoin="round" stroke-width="1"/>
      <path id="Path_140" data-name="Path 140" d="M357.07,302.555s5.487,9.26,28.081,8.409a34.994,34.994,0,0,0-15.419-9.6C360.5,298.893,357.07,302.555,357.07,302.555Z" transform="translate(-181.604 -179.532)" fill="#ffc100" stroke="#263238" stroke-linecap="round" stroke-linejoin="round" stroke-width="1"/>
      <path id="Path_141" data-name="Path 141" d="M293.17,311.778s5.24-8.121,10.042-9.753,18.9-1.77,21.084-1.824,40.934,9.795,59.124,15.858L381.829,285.7l24.445,1.934s-.988,37.038-4.788,46.847-9.246,7.421-18.533,3.416c-36.531-15.734-57.931-26.7-59.92-26.064S293.17,311.778,293.17,311.778Z" transform="translate(-205.362 -185.037)" fill="#fff" stroke="#263238" stroke-linecap="round" stroke-linejoin="round" stroke-width="1"/>
      <path id="Path_142" data-name="Path 142" d="M353.54,276.716a22.8,22.8,0,0,0-.6,7.709c1.084,9.493,5.707,32.292,5.707,32.292s22.785,3.251,28.081,8.409c0,0,3.759-30.179-3.9-45.5s-15.57-17.01-15.57-17.01c-5.007-1.235-9.6,3.43-12.14,9.424" transform="translate(-183.177 -193.694)" fill="#ffc100" stroke="#263238" stroke-linecap="round" stroke-linejoin="round" stroke-width="1"/>
      <g id="Group_14" data-name="Group 14" transform="translate(169.662 68.721)" opacity="0.4">
        <path id="Path_143" data-name="Path 143" d="M353.54,276.716a22.8,22.8,0,0,0-.6,7.709c1.084,9.493,5.707,32.292,5.707,32.292s22.785,3.251,28.081,8.409c0,0,3.759-30.179-3.9-45.5s-15.57-17.01-15.57-17.01c-5.007-1.235-9.6,3.43-12.14,9.424" transform="translate(-352.839 -262.415)" fill="#fff" stroke="#263238" stroke-linecap="round" stroke-linejoin="round" stroke-width="1"/>
      </g>
      <path id="Path_144" data-name="Path 144" d="M304.55,281.4a30.291,30.291,0,0,0,11.66,5.9" transform="translate(-201.131 -186.635)" fill="none" stroke="#263238" stroke-linecap="round" stroke-linejoin="round" stroke-width="1"/>
      <path id="Path_145" data-name="Path 145" d="M357.07,281.4s8.231,15.556,18.629,18.986" transform="translate(-181.604 -186.635)" fill="none" stroke="#263238" stroke-linecap="round" stroke-linejoin="round" stroke-width="1"/>
      <path id="Path_146" data-name="Path 146" d="M318.19,368.75s1.523,1.152,2.14,5.309" transform="translate(-196.059 -154.159)" fill="none" stroke="#fff" stroke-linecap="round" stroke-linejoin="round" stroke-width="1"/>
      <path id="Path_147" data-name="Path 147" d="M314.08,372.62a9.6,9.6,0,0,1,6.708,3.869" transform="translate(-197.587 -152.72)" fill="none" stroke="#fff" stroke-linecap="round" stroke-linejoin="round" stroke-width="1"/>
      <path id="Path_148" data-name="Path 148" d="M281,361s4.39,2.222,3.443,8.519" transform="translate(-209.886 -157.041)" fill="none" stroke="#fff" stroke-linecap="round" stroke-linejoin="round" stroke-width="1"/>
      <path id="Path_149" data-name="Path 149" d="M277.63,364.9s5.995,3.553,6.42,6.736" transform="translate(-211.139 -155.591)" fill="none" stroke="#fff" stroke-linecap="round" stroke-linejoin="round" stroke-width="1"/>
      <path id="Path_150" data-name="Path 150" d="M328.28,336.92s13.348,1.866,16.338,0" transform="translate(-192.308 -165.993)" fill="none" stroke="#fff" stroke-linecap="round" stroke-linejoin="round" stroke-width="1"/>
      <path id="Path_151" data-name="Path 151" d="M326.066,287.1a25.227,25.227,0,0,1-1.372-10.192,29.958,29.958,0,0,1,.37-3.5l-2.318-3.676L319.77,265l3.443-13.718s21.949,4.225,23.595,10.343S326.066,287.1,326.066,287.1Z" transform="translate(-195.472 -197.834)" fill="#fff"/>
      <g id="Group_15" data-name="Group 15" transform="translate(124.298 53.446)" clip-path="url(#clip-path-8)">
        <path id="Path_152" data-name="Path 152" d="M323.868,273.573a29.94,29.94,0,0,1,.37-3.5L321.92,266.4a17.546,17.546,0,0,0,10.714-6.008,13.485,13.485,0,0,1-8.766,13.183Z" transform="translate(-318.971 -247.893)" fill="rgba(0,0,0,0.7)" opacity="0.2"/>
      </g>
      <path id="Path_154" data-name="Path 154" d="M326.066,287.1a25.227,25.227,0,0,1-1.372-10.192,29.958,29.958,0,0,1,.37-3.5l-2.318-3.676L319.77,265l3.443-13.718s21.949,4.225,23.595,10.343S326.066,287.1,326.066,287.1Z" transform="translate(-195.472 -197.834)" fill="none" stroke="#263238" stroke-linecap="round" stroke-linejoin="round" stroke-width="1"/>
      <path id="Path_155" data-name="Path 155" d="M347.692,263.8c6.859-17.833,2.3-48.191-30.618-42.375-19.315,3.429-21.647,26.777-15.2,37.148s-.4,10.7,9.3,18.382c3.937,3.114,7.106,8.4,11.8,8.738,5.583.384,12.73-4.9,18.066-10.6" transform="translate(-203.324 -209.204)" fill="#fff" stroke="#263238" stroke-linecap="round" stroke-linejoin="round" stroke-width="1"/>
      <path id="Path_156" data-name="Path 156" d="M310.75,249.132s4.856-4.417,10.631-2.593" transform="translate(-198.825 -199.76)" fill="none" stroke="#263238" stroke-linecap="round" stroke-linejoin="round" stroke-width="1"/>
      <path id="Path_157" data-name="Path 157" d="M305.827,249.463a8.56,8.56,0,0,0-6.3-4.253" transform="translate(-202.997 -200.091)" fill="none" stroke="#263238" stroke-linecap="round" stroke-linejoin="round" stroke-width="1"/>
      <path id="Path_158" data-name="Path 158" d="M306.922,253s-.7,3.553-1.619,7.147,5.762,1.632,5.487,1.084" transform="translate(-200.883 -197.194)" fill="#fff" stroke="#263238" stroke-linecap="round" stroke-linejoin="round" stroke-width="1"/>
      <path id="Path_159" data-name="Path 159" d="M311.79,263.553a14.582,14.582,0,0,0,7.229-4.733" transform="translate(-198.439 -195.031)" fill="none" stroke="#263238" stroke-linecap="round" stroke-linejoin="round" stroke-width="1"/>
      <path id="Path_160" data-name="Path 160" d="M316.5,252a1.508,1.508,0,1,1-2.634,1.468,1.372,1.372,0,0,1-.192-.7,1.508,1.508,0,1,1,2.634-1.468A1.372,1.372,0,0,1,316.5,252Z" transform="translate(-197.811 -198.115)" fill="#263238"/>
      <path id="Path_161" data-name="Path 161" d="M305.516,251.8c.274.988.082,1.92-.439,2.058s-1.166-.549-1.372-1.55-.069-1.921.453-2.058S305.214,250.8,305.516,251.8Z" transform="translate(-201.479 -198.221)" fill="#263238"/>
      <path id="Path_162" data-name="Path 162" d="M329.522,243.323s-5.1,13.348-17.724,13.046c0,0,4.376-3.333,5.583-6.516,0,0-9.712,9.6-19.411,4.719s-4.938-27.6,9.945-36.572,30.111-6.571,35.269,2c0,0,10.426-.96,15.021,14.363,4.115,13.718-2.469,34.514-8.9,34.748-9.973.37-11.976-10.453-11.976-10.453A28.548,28.548,0,0,1,329.522,243.323Z" transform="translate(-205.457 -212.319)" fill="#263238" stroke="#263238" stroke-linecap="round" stroke-linejoin="round" stroke-width="1"/>
      <path id="Path_163" data-name="Path 163" d="M327.571,255.2s-.316-12.593,6.859-11.07,1.975,16.077-3.416,15.926" transform="translate(-192.572 -200.538)" fill="#fff" stroke="#263238" stroke-linecap="round" stroke-linejoin="round" stroke-width="1"/>
      <rect id="Rectangle_54" data-name="Rectangle 54" width="115.08" height="8.327" rx="1.63" transform="translate(0 125.369)" fill="#ffc100" stroke="#263238" stroke-linecap="round" stroke-linejoin="round" stroke-width="1"/>
    </g>
    <g id="freepik--Plant--inject-2" transform="translate(71.058 483.487)">
      <path id="Path_164" data-name="Path 164" d="M124.435,425.86H77.78l4.884,42.649h36.888Z" transform="translate(-59.878 -334.828)" fill="#263238" stroke="#263238" stroke-linecap="round" stroke-linejoin="round" stroke-width="1"/>
      <path id="Path_165" data-name="Path 165" d="M121.572,404.22s-20.371,1.605-21.222,16.64C100.35,420.86,120.982,430.353,121.572,404.22Z" transform="translate(-51.487 -342.873)" fill="#ffc100" stroke="#263238" stroke-linecap="round" stroke-linejoin="round" stroke-width="1"/>
      <path id="Path_166" data-name="Path 166" d="M94.512,409.583s-11.386-15.392-29.782-7.5C64.73,402.08,75.965,420.64,94.512,409.583Z" transform="translate(-64.73 -344.506)" fill="#ffc100" stroke="#263238" stroke-linecap="round" stroke-linejoin="round" stroke-width="1"/>
      <path id="Path_167" data-name="Path 167" d="M65.9,371.521s-3.279,29.6,23.677,21.455C89.581,392.976,81.021,371.205,65.9,371.521Z" transform="translate(-64.34 -355.032)" fill="#ffc100" stroke="#263238" stroke-linecap="round" stroke-linejoin="round" stroke-width="1"/>
      <path id="Path_168" data-name="Path 168" d="M93.088,359.5S71.771,371,87.45,388.445C87.437,388.445,102.375,375.975,93.088,359.5Z" transform="translate(-58.423 -359.5)" fill="#ffc100" stroke="#263238" stroke-linecap="round" stroke-linejoin="round" stroke-width="1"/>
      <path id="Path_169" data-name="Path 169" d="M115.393,378.811S92.21,376.465,92.21,397.92C92.21,397.92,115.393,398.839,115.393,378.811Z" transform="translate(-54.513 -352.349)" fill="#ffc100" stroke="#263238" stroke-linecap="round" stroke-linejoin="round" stroke-width="1"/>
      <path id="Path_170" data-name="Path 170" d="M95.974,465.707s10.563-22.168.425-44.748-13.581-41.607-8.231-55.009" transform="translate(-56.947 -357.102)" fill="none" stroke="#263238" stroke-linecap="round" stroke-linejoin="round" stroke-width="1"/>
      <path id="Path_171" data-name="Path 171" d="M108.6,383s-13.9,5.487-18.6,19.822" transform="translate(-55.335 -350.763)" fill="none" stroke="#263238" stroke-linecap="round" stroke-linejoin="round" stroke-width="1"/>
      <path id="Path_172" data-name="Path 172" d="M71.21,380.15s8.025,10.974,21.619,9.753" transform="translate(-62.321 -351.822)" fill="none" stroke="#263238" stroke-linecap="round" stroke-linejoin="round" stroke-width="1"/>
      <path id="Path_173" data-name="Path 173" d="M71.21,403.77s22.223,6.393,31.057,4.307" transform="translate(-62.321 -343.041)" fill="none" stroke="#263238" stroke-linecap="round" stroke-linejoin="round" stroke-width="1"/>
      <path id="Path_174" data-name="Path 174" d="M116.4,409.15s-9.946,10.974-19.932,10.741" transform="translate(-52.929 -341.041)" fill="none" stroke="#263238" stroke-linecap="round" stroke-linejoin="round" stroke-width="1"/>
      <rect id="Rectangle_55" data-name="Rectangle 55" width="50.66" height="6.022" transform="translate(15.899 90.086)" fill="#263238" stroke="#263238" stroke-linecap="round" stroke-linejoin="round" stroke-width="1"/>
    </g>
    <g id="freepik--Bag--inject-2" transform="translate(461.806 514.93)">
      <path id="Path_175" data-name="Path 175" d="M393.013,397a93.708,93.708,0,0,0-29.068,30.179c-12.086,20.165-21.661,48.534-6.79,52.128l14.143-.535,27.216-9.342-2.853-5.487s-23.828,12.621-27.9,12.621-9.383,1.015-11.619-.617,7.833-38.3,29.384-50.523S393.013,397,393.013,397Z" transform="translate(-349.575 -377.001)" fill="#ffc100"/>
      <g id="Group_16" data-name="Group 16" transform="translate(0 19.999)" clip-path="url(#clip-path-9)">
        <path id="Path_176" data-name="Path 176" d="M393.013,397a93.708,93.708,0,0,0-29.068,30.179c-12.086,20.165-21.661,48.534-6.79,52.128l14.143-.535,27.216-9.342-2.853-5.487s-23.828,12.621-27.9,12.621-9.383,1.015-11.619-.617,7.833-38.3,29.384-50.523S393.013,397,393.013,397Z" transform="translate(-349.575 -397)" fill="rgba(0,0,0,0.7)" opacity="0.5"/>
      </g>
      <path id="Path_178" data-name="Path 178" d="M393.013,397a93.708,93.708,0,0,0-29.068,30.179c-12.086,20.165-21.661,48.534-6.79,52.128l14.143-.535,27.216-9.342-2.853-5.487s-23.828,12.621-27.9,12.621-9.383,1.015-11.619-.617,7.833-38.3,29.384-50.523S393.013,397,393.013,397Z" transform="translate(-349.575 -377.001)" fill="none" stroke="#263238" stroke-linecap="round" stroke-linejoin="round" stroke-width="1"/>
      <path id="Path_179" data-name="Path 179" d="M392.53,389.2s0-5.912,8.958-6.722,10.234,7.819,10.234,7.819h-3.087s.069-5.172-6.516-5.569-6.338,5.569-6.338,5.569Z" transform="translate(-333.604 -382.421)" fill="#ffc100" stroke="#263238" stroke-linecap="round" stroke-linejoin="round" stroke-width="1"/>
      <path id="Path_180" data-name="Path 180" d="M386.924,482.566c-18.944,0-15.35-84.955-13.169-89.167s57.149-6.31,62.567-4.527S463.47,475.3,451.48,482.059Z" transform="translate(-341.25 -380.259)" fill="#ffc100"/>
      <g id="Group_17" data-name="Group 17" transform="translate(30.717 7.976)" clip-path="url(#clip-path-10)">
        <path id="Path_181" data-name="Path 181" d="M386.924,482.566c-18.944,0-15.35-84.955-13.169-89.167s57.149-6.31,62.567-4.527S463.47,475.3,451.48,482.059Z" transform="translate(-371.966 -388.235)" fill="rgba(0,0,0,0.7)" opacity="0.2"/>
      </g>
      <path id="Path_183" data-name="Path 183" d="M386.924,482.566c-18.944,0-15.35-84.955-13.169-89.167s57.149-6.31,62.567-4.527S463.47,475.3,451.48,482.059Z" transform="translate(-341.25 -380.259)" fill="none" stroke="#263238" stroke-linecap="round" stroke-linejoin="round" stroke-width="1"/>
      <path id="Path_184" data-name="Path 184" d="M373.27,394.126c6.859,1.468,10.81,29.274,20.042,36.353s52.759,5.556,57.684,0-4.705-36.75-11.7-41.524-11.976-.137-31.661-2.318C378.455,383.385,373.27,394.126,373.27,394.126Z" transform="translate(-340.765 -381.082)" fill="#ffc100" stroke="#263238" stroke-linecap="round" stroke-linejoin="round" stroke-width="1"/>
      <path id="Path_185" data-name="Path 185" d="M411.84,403.634l8.066,6.585a1.1,1.1,0,0,1,.123,1.55h0l-6.283,6.777a1.07,1.07,0,0,1-1.509,0h0l-8.025-7.476a1.084,1.084,0,0,1,0-1.509h0l6.214-5.775A1.07,1.07,0,0,1,411.84,403.634Z" transform="translate(-329.374 -374.608)" fill="#ffc100"/>
      <g id="Group_18" data-name="Group 18" transform="translate(74.533 28.827)" clip-path="url(#clip-path-11)">
        <path id="Path_186" data-name="Path 186" d="M411.84,403.634l8.066,6.585a1.1,1.1,0,0,1,.123,1.55h0l-6.283,6.777a1.07,1.07,0,0,1-1.509,0h0l-8.025-7.476a1.084,1.084,0,0,1,0-1.509h0l6.214-5.775A1.07,1.07,0,0,1,411.84,403.634Z" transform="translate(-403.907 -403.435)" fill="rgba(0,0,0,0.7)" opacity="0.2"/>
      </g>
      <path id="Path_188" data-name="Path 188" d="M411.84,403.634l8.066,6.585a1.1,1.1,0,0,1,.123,1.55h0l-6.283,6.777a1.07,1.07,0,0,1-1.509,0h0l-8.025-7.476a1.084,1.084,0,0,1,0-1.509h0l6.214-5.775A1.07,1.07,0,0,1,411.84,403.634Z" transform="translate(-329.374 -374.608)" fill="none" stroke="#263238" stroke-linecap="round" stroke-linejoin="round" stroke-width="1"/>
      <path id="Path_189" data-name="Path 189" d="M390.412,429.232s36.462,3,54.364-1.632a15.378,15.378,0,0,1,5.117,7.339c1.632,4.884,5.035,21.592-5.117,25.872s-46.641,3.457-51.511-1.372S390.412,429.232,390.412,429.232Z" transform="translate(-334.546 -365.624)" fill="#ffc100"/>
      <g id="Group_19" data-name="Group 19" transform="translate(55.453 61.976)" clip-path="url(#clip-path-12)">
        <path id="Path_190" data-name="Path 190" d="M390.412,429.232s36.462,3,54.364-1.632a15.378,15.378,0,0,1,5.117,7.339c1.632,4.884,5.035,21.592-5.117,25.872s-46.641,3.457-51.511-1.372S390.412,429.232,390.412,429.232Z" transform="translate(-389.998 -427.6)" fill="rgba(0,0,0,0.7)" opacity="0.4"/>
      </g>
      <path id="Path_192" data-name="Path 192" d="M390.412,429.232s36.462,3,54.364-1.632a15.378,15.378,0,0,1,5.117,7.339c1.632,4.884,5.035,21.592-5.117,25.872s-46.641,3.457-51.511-1.372S390.412,429.232,390.412,429.232Z" transform="translate(-334.546 -365.624)" fill="none" stroke="#263238" stroke-linecap="round" stroke-linejoin="round" stroke-width="1"/>
      <path id="Path_193" data-name="Path 193" d="M390.3,429.232s4.28,11.537,6.516,13.306,49.6,1.77,54.872-2.51-1.948-12.017-7.01-12.428C444.664,427.6,411.48,431.468,390.3,429.232Z" transform="translate(-334.433 -365.624)" fill="#ffc100" stroke="#263238" stroke-linecap="round" stroke-linejoin="round" stroke-width="1"/>
      <path id="Path_194" data-name="Path 194" d="M382.666,427s1.221,24.24,3.663,29.74a12.689,12.689,0,0,1-11.743,0c-6.173-3.265-5.158-24.144-3.937-24.089S382.666,427,382.666,427Z" transform="translate(-342.082 -365.847)" fill="#ffc100"/>
      <g id="Group_20" data-name="Group 20" transform="translate(27.648 61.153)" clip-path="url(#clip-path-13)">
        <path id="Path_195" data-name="Path 195" d="M382.666,427s1.221,24.24,3.663,29.74a12.689,12.689,0,0,1-11.743,0c-6.173-3.265-5.158-24.144-3.937-24.089S382.666,427,382.666,427Z" transform="translate(-369.729 -427)" fill="rgba(0,0,0,0.7)" opacity="0.4"/>
      </g>
      <path id="Path_197" data-name="Path 197" d="M382.666,427s1.221,24.24,3.663,29.74a12.689,12.689,0,0,1-11.743,0c-6.173-3.265-5.158-24.144-3.937-24.089S382.666,427,382.666,427Z" transform="translate(-342.082 -365.847)" fill="none" stroke="#263238" stroke-linecap="round" stroke-linejoin="round" stroke-width="1"/>
      <path id="Path_198" data-name="Path 198" d="M383.238,427l-9.177,1.838s-8.752,6.722-4.884,8.958S383.019,434.545,383.238,427Z" transform="translate(-342.654 -365.847)" fill="#ffc100" stroke="#263238" stroke-linecap="round" stroke-linejoin="round" stroke-width="1"/>
    </g>
  </g>
</svg>
